Candidate 2

Candidate 3
Candidate 8
Candidate 9
Candidate 14
Candidate 16

Candidate 7

Candidate 17

Candidate 10

Candidate 4

Candidate 2

Candidate 10

Candidate 3

Candidate 7

Candidate 3

Candidate 3

Candidate 3

Candidate 5

Candidate 6

Candidate 3

Candidate 1
Candidate 4

Candidate 2

Candidate 6

Candidate 3
